<svg width="40" height="40" viewBox="0 0 40 40" fill="none" xmlns="http://www.w3.org/2000/svg">
<path d="M20 40C8.97186 40 0 31.0281 0 20C0 8.97186 8.97186 0 20 0C31.0281 0 40 8.97186 40 20C40 31.0281 31.0281 40 20 40ZM20 2.85706C10.5475 2.85706 2.85706 10.5475 2.85706 20C2.85706 29.4525 10.5475 37.1429 20 37.1429C29.4525 37.1429 37.1429 29.4525 37.1429 20C37.1429 10.5475 29.4525 2.85706 20 2.85706Z" fill="white"/>
<path d="M27.1431 28.5715C26.7775 28.5715 26.4118 28.432 26.1329 28.1528L11.8473 13.8672C11.2892 13.309 11.2892 12.4051 11.8473 11.8472C12.4052 11.2894 13.3094 11.2891 13.8673 11.8472L28.1529 26.1328C28.711 26.691 28.711 27.5949 28.1529 28.1528C27.8739 28.432 27.5087 28.5715 27.1431 28.5715Z" fill="white"/>
<path d="M12.8572 28.5715C12.4916 28.5715 12.1263 28.432 11.8473 28.1528C11.2892 27.5949 11.2892 26.6907 11.8473 26.1328L26.1329 11.8472C26.6911 11.289 27.595 11.289 28.1529 11.8472C28.7107 12.4051 28.711 13.3093 28.1529 13.8672L13.8673 28.1528C13.5884 28.432 13.2228 28.5715 12.8572 28.5715Z" fill="white"/>
</svg>
