<svg width="150" height="120" viewBox="0 0 150 120" fill="none" xmlns="http://www.w3.org/2000/svg">
<circle cx="90" cy="60" r="60" fill="#FE9901" fill-opacity="0.25"/>
<g clip-path="url(#clip0)">
<path d="M70.0749 5.63045L52.0985 29.5322H39.8506C34.0186 21.6055 22.4317 5.85109 22.2468 5.60024C21.096 4.03469 21.431 1.83559 22.9939 0.684767C24.5594 -0.466051 26.7585 -0.130053 27.9093 1.43275L45.9672 25.9854L64.4545 1.40254C65.6218 -0.149279 67.8273 -0.460559 69.3791 0.705825C70.9309 1.87312 71.2422 4.07863 70.0749 5.63045Z" fill="#FFBC49"/>
<path d="M70.0754 5.63045C69.3357 6.61464 53.5675 27.5784 52.099 29.5322H46.1719V25.7135L64.455 1.40254C65.6223 -0.149279 67.8278 -0.460559 69.3796 0.705825C70.9315 1.87312 71.2427 4.07863 70.0754 5.63045Z" fill="#FE7E07"/>
<path d="M103.914 119.667C102.179 120.484 100.07 119.752 99.2375 117.977L96.1211 111.328H103.886L105.603 114.991C106.428 116.749 105.672 118.845 103.914 119.667Z" fill="#293939"/>
<path d="M24.3451 111.328L21.2277 117.977C20.3964 119.751 18.287 120.485 16.5521 119.667C14.7943 118.845 14.0371 116.749 14.862 114.991L16.5805 111.328H24.3451Z" fill="#3E5959"/>
<path d="M109.687 28.3602H10.7813C4.96583 28.3602 0.234375 33.0908 0.234375 38.9071V101.953C0.234375 107.769 4.96583 112.5 10.7813 112.5H109.687C115.502 112.5 120.234 107.769 120.234 101.953V38.9071C120.234 33.0908 115.502 28.3602 109.687 28.3602Z" fill="#FD6328"/>
<path d="M120.234 38.9071V101.953C120.234 107.768 115.502 112.5 109.688 112.5H46.1719V28.3602H109.688C115.502 28.3602 120.234 33.0917 120.234 38.9071Z" fill="#EE3616"/>
<path d="M64.921 42.4219H27.4219C20.3137 42.4219 14.5312 48.2053 14.5312 55.3125V85.7813C14.5312 92.8895 20.3137 98.6719 27.4219 98.6719H64.921C72.0292 98.6719 77.8116 92.8895 77.8116 85.7813V55.3125C77.8116 48.2053 72.0292 42.4219 64.921 42.4219Z" fill="#FED941"/>
<path d="M77.8126 55.3125V85.7813C77.8126 92.8895 72.031 98.6719 64.9219 98.6719H46.1719V42.4219H64.9219C72.031 42.4219 77.8126 48.2044 77.8126 55.3125Z" fill="#FCBE29"/>
<path d="M88.3594 49.4531H102.422C104.364 49.4531 105.938 47.8793 105.938 45.9375C105.938 43.9966 104.364 42.4219 102.422 42.4219H88.3594C86.4175 42.4219 84.8438 43.9966 84.8438 45.9375C84.8438 47.8793 86.4175 49.4531 88.3594 49.4531Z" fill="#CB0010"/>
<path d="M102.422 56.4844H88.3594C86.4175 56.4844 84.8438 58.0591 84.8438 60C84.8438 61.9418 86.4175 63.5156 88.3594 63.5156H102.422C104.364 63.5156 105.938 61.9418 105.938 60C105.938 58.0591 104.364 56.4844 102.422 56.4844Z" fill="#CB0010"/>
<path d="M95.3906 77.1094C89.5752 77.1094 84.8438 81.8408 84.8438 87.6563C84.8438 93.4717 89.5752 98.2032 95.3906 98.2032C101.206 98.2032 105.938 93.4717 105.938 87.6563C105.938 81.8408 101.206 77.1094 95.3906 77.1094Z" fill="#CB0010"/>
</g>
<defs>
<clipPath id="clip0">
<rect width="120" height="120" fill="white"/>
</clipPath>
</defs>
</svg>
