<svg width="150" height="150" viewBox="0 0 150 150" fill="none" xmlns="http://www.w3.org/2000/svg">
<circle cx="75" cy="75" r="75" fill="white"/>
<path d="M129.547 28.7719C124.133 12.6955 107.454 3.05476 93.3268 9.43467C77.2015 16.7169 82.548 46.6451 67.9012 52.6969C59.9892 55.966 48.293 43.7544 40.2994 41.8816C25.5693 38.4311 12.2345 50.5587 8.95092 67.3532C5.60099 84.4871 10.9739 107.372 27.107 112.022C46.3245 117.562 56.3349 97.4037 72.4563 91.6156C89.0001 85.6757 107.395 99.704 121.091 82.6358C131.209 70.0263 134.909 44.6912 129.547 28.7719Z" fill="url(#paint0_linear)" fill-opacity="0.5"/>
<path opacity="0.11" d="M58.9666 23.6764C58.4614 15.4365 52.5768 8.93335 45.3862 8.93335C37.8644 8.93335 31.7666 16.0486 31.7666 24.8254C31.7666 30.3672 34.1989 35.2439 37.8845 38.088V65.2435C37.8845 66.3004 38.8387 66.9815 39.6452 66.5039L42.1906 64.9895V110.079H34.8148C33.4772 110.079 32.3929 111.344 32.3929 112.905V117.732C32.3929 120.984 34.6525 123.621 37.4377 123.621H88.4326C88.3793 123.621 88.3277 123.614 88.2747 123.612C90.9973 123.528 93.1831 120.933 93.1831 117.736V29.5629C93.1831 26.313 95.4451 23.6764 98.2327 23.6764H58.9666Z" fill="#2626BC"/>
<path d="M94.7777 23.627V38.4692H105.812C107.149 38.4692 108.234 37.204 108.234 35.6432V23.627C108.234 21.0186 106.778 18.803 104.761 18.0344C104.264 17.8422 103.736 17.7405 103.186 17.7405H89.7329C92.5181 17.7405 94.7777 20.3771 94.7777 23.627Z" fill="#EE8633"/>
<path opacity="0.11" d="M88.9647 30.4092V45.2515H99.9988C101.336 45.2515 102.421 43.9863 102.421 42.4255V30.4092C102.421 27.8008 100.965 25.5853 98.9477 24.8166C98.4512 24.6244 97.9232 24.5227 97.3735 24.5227H83.9199C86.7051 24.5227 88.9647 27.1593 88.9647 30.4092Z" fill="#EE8633"/>
<path d="M94.7777 23.627V38.4692H101.288V23.627C101.288 21.0186 102.743 18.803 104.761 18.0344C104.264 17.8422 103.736 17.7405 103.186 17.7405H89.7329C92.5181 17.7405 94.7777 20.3771 94.7777 23.627Z" fill="#EE8633"/>
<path d="M103.318 17.7418C100.531 17.7418 98.2689 20.3784 98.2689 23.6283V111.801C98.2689 115.051 96.0117 117.685 93.2265 117.685H47.2764V23.6283C47.2764 20.3784 49.5336 17.7418 52.3211 17.7418H103.318Z" fill="#B9B9B9"/>
<path d="M80.686 76.2057H59.6499C58.9812 76.2057 58.439 76.8384 58.439 77.6187V117.286H81.897V77.6187C81.897 76.8384 81.3547 76.2057 80.686 76.2057Z" fill="#E9DEB7"/>
<path d="M98.2688 54.1232V76.1516C97.9055 76.2025 97.535 76.2279 97.1596 76.2279C91.909 76.2279 87.6538 71.2627 87.6538 65.136C87.6538 59.0121 91.909 54.0469 97.1596 54.0469C97.535 54.0469 97.9055 54.0723 98.2688 54.1232Z" fill="#B7C5FF"/>
<path d="M64.0914 23.4446C64.0914 28.9864 61.6599 33.864 57.9738 36.7069V63.8616C57.9738 64.9185 57.0196 65.5996 56.2131 65.122L50.4732 61.7054L47.2764 63.6073V23.6283C47.2764 20.3785 49.5336 17.7418 52.3211 17.7418H63.1881C63.7717 19.5109 64.0914 21.4354 64.0914 23.4446Z" fill="#B7C5FF"/>
<path d="M93.5183 117.686H42.5233C39.7381 117.686 37.4785 115.05 37.4785 111.797V106.97C37.4785 105.409 38.5628 104.144 39.9004 104.144H86.0517C87.3893 104.144 88.4735 105.409 88.4735 106.97V111.797C88.4735 115.05 90.7332 117.686 93.5183 117.686Z" fill="#EE8633"/>
<path d="M97.1594 72.374C102.408 72.374 106.664 67.4088 106.664 61.284C106.664 55.1592 102.408 50.1941 97.1594 50.1941C91.9104 50.1941 87.6553 55.1592 87.6553 61.284C87.6553 67.4088 91.9104 72.374 97.1594 72.374Z" fill="#FE9901"/>
<path d="M57.9733 25.9343V59.309C57.9733 60.3659 57.019 61.047 56.2126 60.5694L50.4727 57.1528L44.7304 60.5694C43.9239 61.047 42.9697 60.3659 42.9697 59.309V25.9343H57.9733Z" fill="#FE9901"/>
<path d="M57.9733 25.9343V36.0682C55.7209 37.4162 53.1707 38.1735 50.4727 38.1735C47.7723 38.1735 45.2221 37.4133 42.9697 36.0682V25.9343H57.9733Z" fill="#FF5BA8"/>
<path d="M50.4722 34.783C57.9941 34.783 64.0918 27.6678 64.0918 18.8909C64.0918 10.1139 57.9941 2.99878 50.4722 2.99878C42.9503 2.99878 36.8525 10.1139 36.8525 18.8909C36.8525 27.6678 42.9503 34.783 50.4722 34.783Z" fill="#FFDBED"/>
<path d="M66.7606 45.2246H88.087C88.885 45.2246 89.5321 44.4698 89.5321 43.5384V34.64C89.5321 33.7088 88.8852 32.9537 88.087 32.9537H66.7606C65.9625 32.9537 65.3154 33.7085 65.3154 34.64V43.5384C65.3154 44.4698 65.9625 45.2246 66.7606 45.2246Z" fill="#E9DEB7"/>
<path d="M68.9763 34.367H64.9302C64.2612 34.367 63.7192 33.7343 63.7192 32.954C63.7192 32.1738 64.2612 31.541 64.9302 31.541H68.9763C69.6452 31.541 70.1873 32.1738 70.1873 32.954C70.1873 33.7343 69.6452 34.367 68.9763 34.367Z" fill="#FE9901"/>
<path d="M77.4774 43.1913H64.9297C64.2608 43.1913 63.7188 42.5586 63.7188 41.7784C63.7188 40.9981 64.2608 40.3654 64.9297 40.3654H77.4774C78.1463 40.3654 78.6884 40.9981 78.6884 41.7784C78.6884 42.5586 78.1463 43.1913 77.4774 43.1913Z" fill="#FE9901"/>
<path d="M83.4619 47.9627H64.9297C64.2608 47.9627 63.7188 47.33 63.7188 46.5497C63.7188 45.7695 64.2608 45.1367 64.9297 45.1367H83.4619C84.1308 45.1367 84.6729 45.7695 84.6729 46.5497C84.6729 47.33 84.1308 47.9627 83.4619 47.9627Z" fill="#FE9901"/>
<path d="M73.7236 69.7474H58.041C57.3721 69.7474 56.8301 69.1146 56.8301 68.3344C56.8301 67.5541 57.3721 66.9214 58.041 66.9214H73.7236C74.3926 66.9214 74.9346 67.5541 74.9346 68.3344C74.9346 69.1146 74.3926 69.7474 73.7236 69.7474Z" fill="#FE9901"/>
<path d="M88.8564 77.8495H58.041C57.3721 77.8495 56.8301 77.2168 56.8301 76.4365C56.8301 75.6563 57.3721 75.0236 58.041 75.0236H88.8562C89.5251 75.0236 90.0671 75.6563 90.0671 76.4365C90.0671 77.2168 89.5251 77.8495 88.8564 77.8495Z" fill="#FE9901"/>
<path d="M88.8564 83.2246H58.041C57.3721 83.2246 56.8301 82.5919 56.8301 81.8116C56.8301 81.0314 57.3721 80.3987 58.041 80.3987H88.8562C89.5251 80.3987 90.0671 81.0314 90.0671 81.8116C90.0671 82.5919 89.5251 83.2246 88.8564 83.2246Z" fill="#FE9901"/>
<path d="M88.8564 88.5994H58.041C57.3721 88.5994 56.8301 87.9667 56.8301 87.1864C56.8301 86.4062 57.3721 85.7734 58.041 85.7734H88.8562C89.5251 85.7734 90.0671 86.4062 90.0671 87.1864C90.0671 87.9667 89.5251 88.5994 88.8564 88.5994Z" fill="#FE9901"/>
<path d="M65.4451 55.868C66.1928 55.868 66.799 55.1608 66.799 54.2883C66.799 53.4159 66.1928 52.7086 65.4451 52.7086C64.6974 52.7086 64.0913 53.4159 64.0913 54.2883C64.0913 55.1608 64.6974 55.868 65.4451 55.868Z" fill="#FE9901"/>
<path d="M69.5408 55.868C70.2885 55.868 70.8947 55.1608 70.8947 54.2883C70.8947 53.4159 70.2885 52.7086 69.5408 52.7086C68.7931 52.7086 68.187 53.4159 68.187 54.2883C68.187 55.1608 68.7931 55.868 69.5408 55.868Z" fill="#FE9901"/>
<path d="M73.6361 55.868C74.3837 55.868 74.9899 55.1608 74.9899 54.2883C74.9899 53.4159 74.3837 52.7086 73.6361 52.7086C72.8884 52.7086 72.2822 53.4159 72.2822 54.2883C72.2822 55.1608 72.8884 55.868 73.6361 55.868Z" fill="#FE9901"/>
<path d="M50.4717 47.2721C49.803 47.2721 49.2607 46.6396 49.2607 45.8591V42.6016C49.2607 41.8211 49.803 41.1886 50.4717 41.1886C51.1404 41.1886 51.6826 41.8211 51.6826 42.6016V45.8591C51.6826 46.6396 51.1404 47.2721 50.4717 47.2721Z" fill="#FF5BA8"/>
<path d="M103.356 16.3323C103.343 16.3317 91.0824 16.3275 91.0824 16.3275C90.4135 16.3275 89.8715 16.9599 89.8715 17.7404C89.8715 18.521 90.4135 19.1534 91.0824 19.1534H98.3754C97.5512 20.3901 97.0594 21.9432 97.0594 23.6278V48.7842C91.197 48.8472 86.4438 54.4291 86.4438 61.2843C86.4438 68.1395 91.197 73.7214 97.0594 73.7844V111.799C97.0594 114.208 95.4178 116.174 93.3718 116.265C91.3258 116.174 89.6843 114.208 89.6843 111.799V106.971C89.6843 104.633 88.0546 102.732 86.0515 102.732H48.487V59.9211L50.4724 58.7401L55.6642 61.828C56.0134 62.0357 56.39 62.1392 56.7652 62.1389C57.2031 62.1389 57.6392 61.9987 58.0292 61.7198C58.7533 61.2021 59.1856 60.3012 59.1856 59.3104V32.882C62.8325 29.781 65.2245 24.7907 65.2972 19.1537H84.2772C84.9461 19.1537 85.4881 18.5213 85.4881 17.7407C85.4881 16.9602 84.9461 16.3277 84.2772 16.3277H65.1391C64.0742 7.99708 57.9032 1.58582 50.4722 1.58582C42.2945 1.58582 35.6416 9.34902 35.6416 18.8909C35.6416 24.6355 38.055 29.7324 41.7588 32.882V41.0411C41.7588 41.8216 42.301 42.4541 42.9697 42.4541C43.6384 42.4541 44.1806 41.8216 44.1806 41.0411V34.5566C46.092 35.6059 48.2237 36.1957 50.4722 36.1957C52.7207 36.1957 54.8524 35.6059 56.7637 34.5566V59.3098L51.0222 55.8949C50.6766 55.6895 50.2678 55.6895 49.9224 55.8949L44.1806 59.3098V48.982C44.1806 48.2015 43.6384 47.5691 42.9697 47.5691C42.301 47.5691 41.7588 48.2015 41.7588 48.982V59.3101C41.7588 60.3012 42.1911 61.2018 42.9152 61.7195C43.6396 62.2375 44.5236 62.2776 45.2804 61.828L46.0649 61.3615V102.732H39.9007C37.8976 102.732 36.2679 104.633 36.2679 106.971V111.799C36.2679 115.824 39.0746 119.099 42.5243 119.099H93.5191C93.6029 119.099 93.6847 119.089 93.7637 119.07C96.962 118.75 99.4812 115.612 99.4812 111.799V73.488C104.276 72.2462 107.874 67.2477 107.874 61.284C107.874 55.3204 104.276 50.3218 99.4812 49.0801V39.8819H105.811C107.814 39.8819 109.444 37.9803 109.444 35.6429V23.6275C109.444 19.6683 106.729 16.4374 103.356 16.3323ZM38.0635 18.8909C38.0635 10.907 43.6299 4.41178 50.4722 4.41178C57.3145 4.41178 62.8809 10.907 62.8809 18.8909C62.8809 26.8748 57.3145 33.37 50.4722 33.37C43.6302 33.37 38.0635 26.8748 38.0635 18.8909ZM85.6819 116.273H42.5248C40.4105 116.273 38.6903 114.266 38.6903 111.799V106.971C38.6903 106.192 39.2335 105.558 39.9012 105.558H86.0519C86.7197 105.558 87.2629 106.192 87.2629 106.971V111.799C87.2629 113.484 87.7543 115.036 88.5792 116.273H85.6819ZM105.453 61.284C105.453 66.62 101.732 70.961 97.1594 70.961C92.5864 70.961 88.8662 66.62 88.8662 61.284C88.8662 55.948 92.5864 51.6071 97.1594 51.6071C101.732 51.6071 105.453 55.948 105.453 61.284ZM107.022 35.6432C107.022 36.4223 106.479 37.0562 105.812 37.0562H99.4815V23.6278C99.4815 21.185 101.169 19.1964 103.254 19.1571C105.338 19.1992 107.022 21.1867 107.022 23.6278V35.6432Z" fill="#3F3F3F"/>
<path d="M50.4718 29.8245C45.305 29.8245 41.1016 24.9198 41.1016 18.8909C41.1016 12.862 45.305 7.95728 50.4718 7.95728C55.6386 7.95728 59.8423 12.862 59.8423 18.8909C59.8423 24.9198 55.6389 29.8245 50.4718 29.8245ZM50.4718 10.7829C46.6404 10.7829 43.5234 14.42 43.5234 18.8906C43.5234 23.3613 46.6406 26.9983 50.4718 26.9983C54.3032 26.9983 57.4204 23.3613 57.4204 18.8906C57.4204 14.42 54.3032 10.7829 50.4718 10.7829Z" fill="#FE9901"/>
<path d="M50.8975 24.2117C50.2288 24.2117 49.6866 23.5792 49.6866 22.7987V16.5638H49.5791C48.9104 16.5638 48.3682 15.9313 48.3682 15.1508C48.3682 14.3702 48.9104 13.7378 49.5791 13.7378H50.8975C51.5662 13.7378 52.1084 14.3702 52.1084 15.1508V22.7987C52.1084 23.5789 51.5662 24.2117 50.8975 24.2117Z" fill="#FE9901"/>
<path d="M93.5557 32.9541C93.5557 30.3655 91.7506 28.2593 89.5322 28.2593C87.3138 28.2593 85.5088 30.3655 85.5088 32.9541C85.5088 34.2308 85.9491 35.3886 86.6604 36.2359C85.9491 37.0831 85.5088 38.2412 85.5088 39.5177C85.5088 40.2982 86.0508 40.9307 86.7197 40.9307C87.3886 40.9307 87.9307 40.2982 87.9307 39.5177C87.9307 38.4873 88.6492 37.6489 89.5322 37.6489C90.4152 37.6489 91.1338 38.4873 91.1338 39.5177C91.1338 40.2982 91.6758 40.9307 92.3447 40.9307C93.0137 40.9307 93.5557 40.2982 93.5557 39.5177C93.5557 38.2409 93.1154 37.0831 92.4041 36.2359C93.1151 35.3889 93.5557 34.2308 93.5557 32.9541ZM89.532 31.0853C90.415 31.0853 91.1336 31.9237 91.1336 32.9541C91.1336 33.9844 90.415 34.8229 89.532 34.8229C88.649 34.8229 87.9304 33.9844 87.9304 32.9541C87.9304 31.9237 88.649 31.0853 89.532 31.0853Z" fill="#FE9901"/>
<path d="M115.882 61.511H115.095V60.5926C115.095 59.812 114.553 59.1796 113.884 59.1796C113.215 59.1796 112.673 59.812 112.673 60.5926V61.511H111.886C111.217 61.511 110.675 62.1434 110.675 62.924C110.675 63.7045 111.217 64.337 111.886 64.337H112.673V65.2554C112.673 66.0359 113.215 66.6684 113.884 66.6684C114.553 66.6684 115.095 66.0359 115.095 65.2554V64.337H115.882C116.551 64.337 117.093 63.7045 117.093 62.924C117.093 62.1434 116.551 61.511 115.882 61.511Z" fill="#FE9901"/>
<path d="M32.7949 46.9203H32.0078V46.0018C32.0078 45.2213 31.4656 44.5889 30.7969 44.5889C30.1282 44.5889 29.5859 45.2213 29.5859 46.0018V46.9203H28.7988C28.1301 46.9203 27.5879 47.5527 27.5879 48.3333C27.5879 49.1138 28.1301 49.7462 28.7988 49.7462H29.5859V50.6647C29.5859 51.4452 30.1282 52.0776 30.7969 52.0776C31.4656 52.0776 32.0078 51.4452 32.0078 50.6647V49.7462H32.7949C33.4636 49.7462 34.0059 49.1138 34.0059 48.3333C34.0059 47.5527 33.4636 46.9203 32.7949 46.9203Z" fill="#EE8633"/>
<path d="M108.073 112.218H107.286V111.3C107.286 110.519 106.744 109.887 106.075 109.887C105.406 109.887 104.864 110.519 104.864 111.3V112.218H104.077C103.408 112.218 102.866 112.851 102.866 113.631C102.866 114.412 103.408 115.044 104.077 115.044H104.864V115.963C104.864 116.743 105.406 117.376 106.075 117.376C106.744 117.376 107.286 116.743 107.286 115.963V115.044H108.073C108.742 115.044 109.284 114.412 109.284 113.631C109.284 112.851 108.742 112.218 108.073 112.218Z" fill="#FE9901"/>
<path d="M26.3542 39.495C26.0011 39.495 25.6463 39.4325 25.2997 39.3068C24.3978 38.9798 23.6589 38.262 23.2193 37.2865C22.7797 36.3107 22.6923 35.1939 22.9728 34.141C23.2532 33.0886 23.8681 32.2267 24.7044 31.7135C25.541 31.2009 26.4981 31.0986 27.4 31.4258C29.2622 32.1018 30.3061 34.4193 29.7267 36.5919C29.4463 37.6443 28.8314 38.5062 27.9951 39.0191C27.4804 39.3348 26.9197 39.495 26.3542 39.495ZM26.3484 34.065C26.1702 34.065 25.9936 34.1156 25.8313 34.2148C25.5678 34.3764 25.3738 34.6483 25.2854 34.98C25.197 35.3121 25.2247 35.6642 25.3632 35.9716C25.5017 36.2791 25.7345 36.5052 26.0188 36.6083C26.3031 36.7117 26.6051 36.6792 26.8686 36.5179C27.1321 36.3562 27.3259 36.0844 27.4143 35.7529C27.4143 35.7526 27.4143 35.7526 27.4143 35.7526C27.5969 35.0679 27.2678 34.3374 26.6807 34.1243C26.5717 34.0845 26.4598 34.065 26.3484 34.065Z" fill="#FE9901"/>
<path d="M79.1805 13.7796C78.8274 13.7796 78.4728 13.7171 78.126 13.5914C77.2236 13.2641 76.4852 12.5463 76.0454 11.5708C75.6061 10.595 75.5184 9.47818 75.7989 8.42522C76.3779 6.25289 78.3634 5.03433 80.226 5.7103C82.0879 6.38628 83.1317 8.70358 82.5527 10.8762C82.2725 11.9289 81.6573 12.7908 80.8213 13.3037C80.3069 13.6191 79.746 13.7796 79.1805 13.7796ZM79.1771 8.34977C78.7019 8.34977 78.2604 8.70782 78.112 9.26454C78.0236 9.59631 78.0512 9.94814 78.1895 10.2559C78.328 10.5634 78.561 10.7897 78.8455 10.8929C79.4326 11.1059 80.0584 10.7219 80.2408 10.0372C80.2408 10.0372 80.2408 10.0372 80.2408 10.0369C80.4234 9.35214 80.0945 8.62163 79.5074 8.40855C79.3975 8.3687 79.2863 8.34977 79.1771 8.34977Z" fill="#FE9901"/>
<path d="M97.1588 65.8795C96.8374 65.8795 96.5291 65.7306 96.3022 65.4652L93.5369 62.236C93.0642 61.6841 93.0646 60.7894 93.5376 60.2378C94.0106 59.6862 94.7772 59.6861 95.2502 60.2386L97.1591 62.4677L106.827 51.1851C107.299 50.6332 108.066 50.6335 108.539 51.1848C109.012 51.7367 109.012 52.6311 108.539 53.1831L98.0152 65.4655C97.788 65.7306 97.48 65.8795 97.1588 65.8795Z" fill="white"/>
<defs>
<linearGradient id="paint0_linear" x1="55.3041" y1="11.0604" x2="95.652" y2="112.073" gradientUnits="userSpaceOnUse">
<stop offset="0.0112" stop-color="#FCEDC5"/>
<stop offset="1" stop-color="#F5B626"/>
</linearGradient>
</defs>
</svg>
