<svg width="150" height="120" viewBox="0 0 150 120" fill="none" xmlns="http://www.w3.org/2000/svg">
<circle cx="90" cy="60" r="60" fill="#FE9901" fill-opacity="0.25"/>
<g clip-path="url(#clip0)">
<path d="M34.5537 82.7587C25.8847 85.6552 11.3399 101.379 11.133 101.379C8.02957 104.483 3.64337 105.186 1.38819 102.931C-0.17143 101.095 -0.442656 98.49 0.705435 96.3725C6.65915 83.5398 14.7149 71.7919 24.5399 61.6138L34.5537 82.7587Z" fill="#E57E25"/>
<path d="M58.3246 95.4828C48.1743 105.338 36.4291 113.403 23.5866 119.338C21.4691 120.486 18.8637 120.215 17.028 118.655C14.7728 116.4 15.4763 112.014 18.5797 108.91C18.7453 108.704 34.3453 94.2415 37.3246 85.4483L58.3246 95.4828Z" fill="#E57E25"/>
<path d="M51.7267 43.138L38.6509 47.9586C36.7673 45.8674 35.0581 43.6254 33.5405 41.2552C27.9543 32.4621 28.6577 26.5242 28.9474 25.1173C29.2371 23.7104 28.8026 24.8276 37.244 9.43451C38.3307 7.32498 40.4812 5.97582 42.8534 5.91527C45.2257 5.85472 47.4422 7.09241 48.6351 9.14374C49.8281 11.1951 49.8077 13.7337 48.5819 15.7655L41.775 28.1793C42.5198 32.8759 47.2371 38.5242 50.5888 41.8759C51.0209 42.2458 51.4034 42.67 51.7267 43.138Z" fill="#E57E25"/>
<path d="M110.608 82.7585C95.3185 91.2412 96.1254 90.8895 94.9047 91.0343C93.684 91.1792 87.5805 92.0274 78.7874 86.4412C76.4042 84.9423 74.1607 83.2319 72.084 81.3309L76.9047 68.2758C78.1544 69.1408 79.3 70.1475 80.3185 71.2758C83.3598 73.9654 87.9736 77.4826 91.9667 78.124L104.277 71.2964C107.442 69.5482 111.425 70.6968 113.174 73.862C114.922 77.0271 113.773 81.0102 110.608 82.7585Z" fill="#E57E25"/>
<path d="M24.5413 61.6965L34.5551 82.7586C32.9205 83.3692 31.3591 84.1603 29.8999 85.1172C23.4034 77.9586 20.6516 71.7931 20.1758 66.4965C22.2447 64.1379 23.8172 62.4414 24.5413 61.6965Z" fill="#D25627"/>
<path d="M38.6098 47.9586C37.6167 46.8414 36.7063 45.7448 35.8994 44.6897C40.0372 42.725 44.3102 41.0587 48.6856 39.7035C50.7546 42 50.9822 41.9173 51.6856 43.1379L38.6098 47.9586Z" fill="#D25627"/>
<path d="M37.2447 85.4483L58.2447 95.4828C57.4999 96.2069 55.8447 97.7793 53.4654 99.8276C47.5895 99.331 41.4654 96.1242 34.8447 90.1035C35.8266 88.6525 36.6323 87.0898 37.2447 85.4483Z" fill="#D25627"/>
<path d="M80.3185 71.3585C78.9893 75.7401 77.3293 80.0144 75.3529 84.1447C74.2978 83.3171 73.284 82.4275 72.084 81.4137L76.9047 68.2758C78.159 69.1666 79.3047 70.2013 80.3185 71.3585Z" fill="#D25627"/>
<path d="M78.2079 63.5172C76.7055 69.6644 74.6274 75.6564 72.001 81.4138C63.1045 100.448 50.0286 99.5379 35.2148 84.7448C20.401 69.9517 19.5941 56.8138 38.5252 47.9586C44.2806 45.3452 50.2645 43.2674 56.401 41.7517L78.2079 63.5172Z" fill="#F29C1F"/>
<path d="M67.614 64.8307L55.1952 52.4119C54.3873 51.6041 53.0775 51.6041 52.2697 52.4119L41.3867 63.2948C40.5789 64.1027 40.5789 65.4125 41.3867 66.2204L53.8056 78.6392C54.6134 79.4471 55.9232 79.4471 56.7311 78.6392L67.614 67.7563C68.4218 66.9484 68.4218 65.6386 67.614 64.8307Z" fill="#F0C419"/>
<path d="M59.8585 68.3998C58.824 68.3998 58.493 67.8826 56.8585 66.3309C56.0563 65.5239 56.0563 64.2206 56.8585 63.4137C57.247 63.022 57.7758 62.8017 58.3274 62.8017C58.8791 62.8017 59.4079 63.022 59.7964 63.4137L61.3274 64.9447C61.8678 65.5426 62.0118 66.3998 61.6965 67.1414C61.3812 67.8831 60.664 68.3741 59.8585 68.3998Z" fill="#F29C1F"/>
<path d="M55.2653 72.993C54.2102 72.993 53.8998 72.4965 52.2653 70.9241C51.8736 70.5356 51.6533 70.0068 51.6533 69.4551C51.6533 68.9035 51.8736 68.3746 52.2653 67.9862C53.0723 67.184 54.3756 67.184 55.1826 67.9862L56.7136 69.5172C57.2653 70.1112 57.4193 70.9726 57.1075 71.7209C56.7957 72.4692 56.0756 72.9665 55.2653 72.993Z" fill="#F29C1F"/>
<path d="M12.4147 13.7793C11.272 13.7793 10.3457 12.853 10.3457 11.7104V3.4345C10.3457 2.29185 11.272 1.36554 12.4147 1.36554C13.5573 1.36554 14.4836 2.29185 14.4836 3.4345V11.7104C14.4836 12.853 13.5573 13.7793 12.4147 13.7793Z" fill="#F0C419"/>
<path d="M16.5528 9.64144H8.27697C7.13431 9.64144 6.20801 8.71513 6.20801 7.57247C6.20801 6.42982 7.13431 5.50351 8.27697 5.50351H16.5528C17.6955 5.50351 18.6218 6.42982 18.6218 7.57247C18.6218 8.71513 17.6955 9.64144 16.5528 9.64144Z" fill="#F0C419"/>
<path d="M99.3111 115.096C98.1685 115.096 97.2422 114.17 97.2422 113.027V104.752C97.2422 103.609 98.1685 102.683 99.3111 102.683C100.454 102.683 101.38 103.609 101.38 104.752V113.027C101.38 114.17 100.454 115.096 99.3111 115.096Z" fill="#F0C419"/>
<path d="M103.448 110.958H95.1725C94.0298 110.958 93.1035 110.032 93.1035 108.89C93.1035 107.747 94.0298 106.821 95.1725 106.821H103.448C104.591 106.821 105.517 107.747 105.517 108.89C105.517 110.032 104.591 110.958 103.448 110.958Z" fill="#F0C419"/>
<path d="M6.20666 48.9311C5.064 48.9311 4.1377 48.0048 4.1377 46.8621V38.5862C4.1377 37.4436 5.064 36.5173 6.20666 36.5173C7.34931 36.5173 8.27562 37.4436 8.27562 38.5862V46.8621C8.27562 48.0048 7.34931 48.9311 6.20666 48.9311Z" fill="#F0C419"/>
<path d="M10.3448 44.7931H2.06897C0.926307 44.7931 0 43.8668 0 42.7242C0 41.5815 0.926307 40.6552 2.06897 40.6552H10.3448C11.4875 40.6552 12.4138 41.5815 12.4138 42.7242C12.4138 43.8668 11.4875 44.7931 10.3448 44.7931Z" fill="#F0C419"/>
<path d="M116.197 46.1793C116.197 46.1793 108.211 56.2551 107.922 56.5241C103.173 61.9509 96.3967 65.1784 89.1908 65.4447C81.9849 65.711 74.9884 62.9925 69.8526 57.931L62.0733 50.1103C56.9974 44.9822 54.2637 37.986 54.5183 30.775C54.7729 23.564 57.9932 16.778 63.4181 12.0207C64.0802 11.4207 64.3492 11.2345 73.763 3.74481C80.6721 -1.7394 90.5957 -1.16979 96.8319 5.06895L114.853 23.0896C121.11 29.3232 121.689 39.2614 116.197 46.1793Z" fill="#D25627"/>
<path d="M116.194 46.1793C116.194 46.1793 108.208 56.2551 107.918 56.5241C97.5846 65.3992 82.16 64.8223 72.5182 55.1999L64.7596 47.4206C55.1213 37.7887 54.535 22.3561 63.4148 12.0207C63.9113 11.5655 64.2631 11.3172 73.7596 3.74481C80.6687 -1.7394 90.5924 -1.16979 96.8286 5.06895L114.849 23.0896C121.106 29.3232 121.685 39.2614 116.194 46.1793Z" fill="#E57E25"/>
<path d="M109.41 40.7793L101.878 50.2758C98.8003 54.1574 94.2087 56.5368 89.2624 56.8136C84.3162 57.0904 79.4878 55.2381 75.9957 51.7241L68.2785 43.9655C61.591 37.3232 61.453 26.5493 67.9682 19.7379C69.1475 18.4758 69.5613 18.2483 79.244 10.5724C82.6989 7.81926 87.6714 8.10442 90.7888 11.2345L108.81 29.2552C111.899 32.3901 112.157 37.3404 109.41 40.7793Z" fill="#35495E"/>
<path d="M87.4786 19.2827C86.5474 19.2679 85.741 18.6328 85.5082 17.7311C85.2755 16.8294 85.6738 15.8834 86.4814 15.4197C87.2891 14.9561 88.3069 15.0891 88.9682 15.7448C89.5679 16.3393 89.7461 17.2386 89.4184 18.0169C89.0907 18.7952 88.3229 19.2962 87.4786 19.2827Z" fill="white"/>
<path d="M102.83 34.6138C102.287 34.6115 101.767 34.396 101.382 34.0138L92.1544 24.8276C91.3522 24.0206 91.3522 22.7173 92.1544 21.9103C92.5429 21.5186 93.0717 21.2983 93.6233 21.2983C94.175 21.2983 94.7038 21.5186 95.0923 21.9103L104.299 31.0345C104.927 31.6216 105.126 32.5358 104.8 33.3311C104.474 34.1263 103.69 34.6369 102.83 34.6138Z" fill="white"/>
<path d="M102.003 50.1104C98.9493 54.0561 94.3442 56.4953 89.3645 56.8043C84.3849 57.1133 79.5135 55.2622 75.9958 51.7242L68.2785 43.9655C61.591 37.3232 61.453 26.5494 67.9682 19.7379C79.5337 22.2621 94.3682 29.6483 102.003 50.1104Z" fill="#2C3E50"/>
</g>
<defs>
<clipPath id="clip0">
<rect width="120" height="120" fill="white"/>
</clipPath>
</defs>
</svg>
