<svg width="150" height="158" viewBox="0 0 150 158" fill="none" xmlns="http://www.w3.org/2000/svg">
<circle cx="75" cy="83" r="75" fill="#FFFDFD"/>
<path d="M140.29 38.347C134.308 20.6641 115.88 10.0599 100.272 17.0774C82.4565 25.0873 88.3635 58.0062 72.1812 64.6628C63.4397 68.2585 50.5173 54.8267 41.6856 52.7671C25.4113 48.9717 10.6784 62.3113 7.05062 80.784C3.34948 99.6301 9.28569 124.802 27.1101 129.917C48.3424 136.01 59.4022 113.837 77.2138 107.471C95.4921 100.937 115.815 116.368 130.947 97.5938C142.127 83.7239 146.214 55.8571 140.29 38.347Z" fill="url(#paint0_linear)" fill-opacity="0.5"/>
<path opacity="0.11" d="M106.464 112.655H90.2438V86.9391C90.2607 86.9507 90.2762 86.9636 90.2931 86.9748C94.4928 89.8044 100.275 87.2915 103.209 81.3627C106.142 75.4336 105.116 68.3336 100.916 65.5041C97.619 63.2829 93.3474 64.3551 90.2438 67.7864V59.5809C90.2438 57.8509 89.042 56.4485 87.5594 56.4485H78.0855C79.3359 51.8237 81.2721 47.4483 83.7898 43.4992C86.1654 39.7732 87.5715 35.156 87.5715 30.1544C87.5715 17.607 78.7279 7.47011 67.9175 7.76864C57.6839 8.05118 49.3619 17.8392 49.196 29.7829C49.1227 35.0482 50.608 39.9044 53.1484 43.7668C55.6647 47.593 57.54 51.8945 58.7394 56.4482H50.8831C49.6432 56.4482 48.5646 57.439 48.2737 58.8454L42.7256 85.658C42.3179 87.6289 43.5975 89.5256 45.3351 89.5256H50.2595L49.0604 112.359C48.9659 114.161 50.1927 115.683 51.7397 115.683H64.1857V129.748C64.1857 131.478 65.3875 132.88 66.87 132.88H81.1661V137.207C81.1661 138.82 82.2881 140.129 83.6706 140.129H106.463C107.846 140.129 108.968 138.82 108.968 137.207V115.577C108.968 113.964 107.846 112.655 106.464 112.655Z" fill="#2626BC"/>
<path d="M105.022 59.5746C101.739 57.3553 97.4867 58.4266 94.3968 61.8549V53.6566C94.3968 51.928 93.2003 50.5269 91.7244 50.5269H55.2108C53.9764 50.5269 52.9026 51.5168 52.613 52.922L47.0896 79.7114C46.6836 81.6806 47.9576 83.5756 49.6874 83.5756H54.59L53.3962 106.389C53.3019 108.189 54.5235 109.71 56.0636 109.71H68.4544V123.763C68.4544 125.491 69.6508 126.892 71.1268 126.892H91.7241C93.2001 126.892 94.3965 125.491 94.3965 123.763V80.9911C94.4134 81.0027 94.4289 81.0155 94.4457 81.0268C98.6267 83.8539 104.384 81.3432 107.304 75.4195C110.225 69.4959 109.203 62.4017 105.022 59.5746Z" fill="#B9B9B9"/>
<path d="M62.7197 71.9093V78.0209C62.7197 79.7067 63.9054 81.0732 65.368 81.0732H80.1415C81.6042 81.0732 82.7898 79.7067 82.7898 78.0209V71.9093H62.7197Z" fill="#B7C5FF"/>
<path d="M113.332 109.453V131.096C113.332 132.71 112.205 134.02 110.816 134.02H87.9237C86.5352 134.02 85.4082 132.71 85.4082 131.096V109.453C85.4082 107.839 86.5352 106.528 87.9237 106.528H110.816C112.205 106.528 113.332 107.839 113.332 109.453Z" fill="#FE9901"/>
<path d="M97.0257 115.692H92.1129C91.3007 115.692 90.6426 115.008 90.6426 114.165C90.6426 113.322 91.3007 112.638 92.1129 112.638H97.0257C97.8379 112.638 98.496 113.322 98.496 114.165C98.496 115.008 97.8376 115.692 97.0257 115.692Z" fill="#DCFDEE"/>
<path d="M113.331 109.453V131.096C113.331 132.71 112.197 134.02 110.8 134.02H106.351C107.748 134.02 108.882 132.71 108.882 131.096V109.453C108.882 107.839 107.748 106.528 106.351 106.528H110.8C112.197 106.528 113.331 107.839 113.331 109.453Z" fill="#B7C5FF"/>
<path d="M113.332 115.692V131.184C113.332 132.75 112.205 134.02 110.816 134.02H87.9237C86.5352 134.02 85.4082 132.75 85.4082 131.184V126.428H90.1534C90.8678 126.428 91.5553 126.109 92.0595 125.537L95.6399 121.501C96.1468 120.932 96.8316 120.61 97.5488 120.61H107.853C108.22 120.61 108.579 120.525 108.91 120.367C109.226 120.215 109.514 119.999 109.759 119.72L113.332 115.692Z" fill="#EE8633"/>
<path d="M113.331 115.692V131.184C113.331 132.75 112.197 134.02 110.8 134.02H106.351C107.748 134.02 108.882 132.75 108.882 131.184V120.367C109.199 120.215 109.49 119.999 109.737 119.72L113.331 115.692Z" fill="#DCFDEE"/>
<path d="M73.1905 97.8722C73.1905 98.0322 73.1837 98.1882 73.1733 98.3442C72.9675 101.217 70.9024 103.474 68.391 103.474C67.4168 103.474 66.5076 103.134 65.7529 102.55C64.4494 101.549 63.5918 99.8288 63.5918 97.8719C63.5918 94.7826 65.7394 92.2737 68.3913 92.2737C71.0395 92.2743 73.1905 94.7833 73.1905 97.8722Z" fill="#FF7EB8"/>
<path d="M73.1909 98.2939C72.9973 101.195 71.0544 103.474 68.6918 103.474C67.7753 103.474 66.9199 103.131 66.21 102.541C66.4035 99.6394 68.3432 97.3645 70.709 97.3645C71.6255 97.3645 72.4807 97.7039 73.1909 98.2939Z" fill="#FFC4DF"/>
<path d="M72.7254 2.67739C62.4874 2.95733 54.1617 12.6549 53.9958 24.4883C53.9224 29.705 55.4083 34.5164 57.9499 38.343C62.4154 45.0674 64.8646 53.2731 65.0967 61.7271H81.2829C81.5305 53.1713 84.1679 44.9693 88.6047 38.078C90.9814 34.3864 92.3881 29.8118 92.3881 24.8564C92.3878 12.4249 83.5403 2.38162 72.7254 2.67739Z" fill="#F6BB76"/>
<path d="M92.388 24.856C92.388 29.8125 90.9964 34.3873 88.6461 38.0775C84.259 44.9706 81.6511 53.1704 81.4068 61.7271H77.487C77.7313 53.1704 80.3392 44.9706 84.7264 38.0775C87.0766 34.3873 88.4682 29.8125 88.4682 24.856C88.4682 13.3757 81.0111 3.93135 71.4453 2.78921C71.9393 2.72714 72.4385 2.6899 72.9431 2.67748C83.6375 2.37953 92.388 12.4229 92.388 24.856Z" fill="#FFDBED"/>
<path d="M80.1415 77.0004H65.368C63.9054 77.0004 62.7197 75.6157 62.7197 73.9075V63.8019C62.7197 62.0937 63.9054 60.709 65.368 60.709H80.1415C81.6042 60.709 82.7898 62.0937 82.7898 63.8019V73.9075C82.7898 75.6157 81.6042 77.0004 80.1415 77.0004Z" fill="#DCFDEE"/>
<path d="M111.149 98.3829C110.143 98.3829 109.137 97.9363 108.371 97.0425C106.84 95.2557 106.84 92.3483 108.371 90.5616C109.113 89.6957 110.1 89.219 111.149 89.219C112.199 89.219 113.185 89.696 113.927 90.5616C115.459 92.3483 115.459 95.2557 113.927 97.0425V97.0428C113.162 97.936 112.156 98.3829 111.149 98.3829ZM112.976 95.933H112.979H112.976ZM111.149 92.3571C110.819 92.3571 110.508 92.5074 110.274 92.7805C109.791 93.3438 109.791 94.2602 110.274 94.8236C110.757 95.3863 111.542 95.3866 112.025 94.8233C112.508 94.2602 112.508 93.3438 112.025 92.7805C111.791 92.5077 111.48 92.3571 111.149 92.3571Z" fill="#EE8633"/>
<path d="M119.875 65.8001C118.869 65.8001 117.863 65.3534 117.097 64.4594C115.565 62.6723 115.565 59.7638 117.097 57.9767C118.629 56.1893 121.121 56.1896 122.653 57.9764C124.185 59.7638 124.185 62.6723 122.653 64.4594V64.4597C121.887 65.3531 120.881 65.8001 119.875 65.8001ZM121.702 63.3497H121.705H121.702ZM119.875 59.7739C119.558 59.7739 119.241 59.9148 119 60.1964C118.517 60.7599 118.517 61.6768 119 62.2403C119.482 62.8032 120.268 62.8035 120.751 62.24C121.234 61.6768 121.234 60.7599 120.751 60.1964C120.509 59.9148 120.192 59.7739 119.875 59.7739Z" fill="#EE8633"/>
<path d="M39.5866 73.4268H38.7304V72.4278C38.7304 71.5788 38.1406 70.8909 37.4133 70.8909C36.686 70.8909 36.0961 71.5788 36.0961 72.4278V73.4268H35.24C34.5127 73.4268 33.9229 74.1147 33.9229 74.9637C33.9229 75.8127 34.5127 76.5006 35.24 76.5006H36.0961V77.4996C36.0961 78.3486 36.686 79.0366 37.4133 79.0366C38.1406 79.0366 38.7304 78.3486 38.7304 77.4996V76.5006H39.5866C40.3139 76.5006 40.9037 75.8127 40.9037 74.9637C40.9037 74.1147 40.3142 73.4268 39.5866 73.4268Z" fill="#EE8633"/>
<path d="M129.466 66.2996H128.609V65.3006C128.609 64.4516 128.02 63.7637 127.292 63.7637C126.565 63.7637 125.975 64.4516 125.975 65.3006V66.2996H125.119C124.392 66.2996 123.802 66.9875 123.802 67.8365C123.802 68.6855 124.392 69.3734 125.119 69.3734H125.975V70.3724C125.975 71.2214 126.565 71.9093 127.292 71.9093C128.02 71.9093 128.609 71.2214 128.609 70.3724V69.3734H129.466C130.193 69.3734 130.783 68.6855 130.783 67.8365C130.783 66.9875 130.193 66.2996 129.466 66.2996Z" fill="#EE8633"/>
<path d="M39.4215 38.808H38.4584V37.809C38.4584 36.96 37.7948 36.2721 36.9766 36.2721C36.1583 36.2721 35.4948 36.96 35.4948 37.809V38.808H34.5316C33.7134 38.808 33.0498 39.4959 33.0498 40.3449C33.0498 41.1939 33.7134 41.8818 34.5316 41.8818H35.4948V42.8808C35.4948 43.7297 36.1583 44.4177 36.9766 44.4177C37.7948 44.4177 38.4584 43.7297 38.4584 42.8808V41.8818H39.4215C40.2398 41.8818 40.9033 41.1939 40.9033 40.3449C40.9033 39.4959 40.2398 38.808 39.4215 38.808Z" fill="#FE9901"/>
<path d="M104.107 52.5632H99.8659C99.1095 52.5632 98.4961 51.8796 98.4961 51.0359C98.4961 50.1922 99.1095 49.5085 99.8659 49.5085H104.107C104.864 49.5085 105.477 50.1922 105.477 51.0359C105.477 51.8796 104.864 52.5632 104.107 52.5632Z" fill="#EE8633"/>
<path d="M112.834 52.5632H108.592C107.836 52.5632 107.223 51.8796 107.223 51.0359C107.223 50.1922 107.836 49.5085 108.592 49.5085H112.834C113.59 49.5085 114.204 50.1922 114.204 51.0359C114.204 51.8796 113.59 52.5632 112.834 52.5632Z" fill="#EE8633"/>
<path d="M39.5339 52.5632H35.2927C34.5363 52.5632 33.9229 51.8796 33.9229 51.0359C33.9229 50.1922 34.5363 49.5085 35.2927 49.5085H39.5339C40.2903 49.5085 40.9037 50.1922 40.9037 51.0359C40.9037 51.8796 40.2903 52.5632 39.5339 52.5632Z" fill="#FE9901"/>
<path d="M49.1335 52.5632H44.8923C44.1359 52.5632 43.5225 51.8796 43.5225 51.0359C43.5225 50.1922 44.1359 49.5085 44.8923 49.5085H49.1335C49.8899 49.5085 50.5034 50.1922 50.5034 51.0359C50.5034 51.8796 49.8899 52.5632 49.1335 52.5632Z" fill="#FE9901"/>
<path d="M55.241 128.929H50.9997C50.2433 128.929 49.6299 128.245 49.6299 127.402C49.6299 126.558 50.2433 125.874 50.9997 125.874H55.241C55.9974 125.874 56.6108 126.558 56.6108 127.402C56.6108 128.245 55.9974 128.929 55.241 128.929Z" fill="#EE8633"/>
<path d="M63.9675 128.929H59.7263C58.9699 128.929 58.3564 128.245 58.3564 127.402C58.3564 126.558 58.9699 125.874 59.7263 125.874H63.9675C64.7239 125.874 65.3373 126.558 65.3373 127.402C65.3373 128.245 64.7239 128.929 63.9675 128.929Z" fill="#EE8633"/>
<path d="M77.0495 98.3828C76.2892 98.3828 75.6726 97.7235 75.6726 96.91C75.6726 93.1706 72.8282 90.1281 69.332 90.1281C68.5717 90.1281 67.9551 89.4689 67.9551 88.6553C67.9551 87.8417 68.5717 87.1825 69.332 87.1825C74.3467 87.1825 78.4265 91.5461 78.4265 96.91C78.4265 97.7235 77.8099 98.3828 77.0495 98.3828Z" fill="#EE8633"/>
<path d="M77.0361 39.3267C76.2683 39.3267 75.6457 40.0111 75.6457 40.8557V43.6761C74.9012 44.1581 74.0648 44.4143 73.1908 44.4143C72.3168 44.4143 71.4806 44.1584 70.7359 43.6761V40.8557C70.7359 40.0111 70.1133 39.3267 69.3455 39.3267C68.5777 39.3267 67.9551 40.0111 67.9551 40.8557V60.1981C67.9551 61.0428 68.5777 61.7272 69.3455 61.7272C70.1133 61.7272 70.7359 61.0428 70.7359 60.1981V54.9178C71.5181 55.2102 72.3435 55.3615 73.1908 55.3615C74.0381 55.3615 74.8631 55.2102 75.6457 54.9178V60.1978C75.6457 61.0425 76.2683 61.7269 77.0361 61.7269C77.8038 61.7269 78.4265 61.0425 78.4265 60.1978V40.8554C78.4265 40.011 77.8038 39.3267 77.0361 39.3267ZM75.6457 51.5656C74.9012 52.0475 74.0648 52.3038 73.1908 52.3038C72.3168 52.3038 71.4806 52.0478 70.7359 51.5656V47.0287C71.5181 47.321 72.3435 47.4724 73.1908 47.4724C74.0381 47.4724 74.8631 47.321 75.6457 47.0287V51.5656Z" fill="#EE8633"/>
<path d="M110.976 105.294H88.2562C86.1418 105.294 84.4215 107.302 84.4215 109.769V125.454H71.5082C70.7705 125.454 70.1703 124.753 70.1703 123.893V111.435H75.5904C76.6626 111.435 77.6703 110.948 78.4283 110.063L79.3314 109.01C79.854 108.4 79.854 107.411 79.3314 106.802C78.8094 106.192 77.9619 106.192 77.4394 106.802L76.5363 107.855C76.2837 108.15 75.9476 108.313 75.5904 108.313H56.4265C56.0534 108.313 55.7075 108.138 55.4519 107.821C55.1964 107.504 55.0682 107.09 55.091 106.656L56.2092 85.3633H57.6014C59.1694 85.3633 60.6028 84.2877 61.2533 82.6233L61.3997 82.2486C61.7063 81.464 61.4098 80.5379 60.7374 80.1804C60.0652 79.822 59.2716 80.1686 58.965 80.9529L58.8186 81.3278C58.6016 81.8827 58.1237 82.2414 57.6011 82.2414H50.042C49.6294 82.2414 49.2463 82.0244 48.991 81.646C48.7357 81.2676 48.6447 80.7818 48.7416 80.3137L54.2716 53.5886C54.4172 52.8852 54.9518 52.3941 55.5721 52.3941H62.3983C62.9414 54.6964 63.308 57.0706 63.4913 59.494C62.3236 60.3139 61.5385 61.8026 61.5385 63.5055V73.7071C61.5385 76.2895 63.3391 78.3904 65.5522 78.3904H80.479C82.6922 78.3904 84.4927 76.2895 84.4927 73.7071V63.5052C84.4927 61.8042 83.709 60.3167 82.5434 59.4962C82.7345 57.098 83.1187 54.7223 83.6865 52.3938H92.1313C92.869 52.3938 93.4692 53.0941 93.4692 53.9549V62.1333C93.4692 62.7571 93.7873 63.321 94.2783 63.5673C94.769 63.8143 95.3393 63.6956 95.7272 63.2666C98.4678 60.2365 102.104 59.41 104.776 61.2103C108.317 63.5957 109.123 69.73 106.572 74.8848C105.313 77.4291 103.441 79.3427 101.3 80.2731C99.2542 81.162 97.2083 81.0347 95.5381 79.9157L95.4899 79.8813C95.0762 79.5941 94.5627 79.5891 94.1451 79.8666C93.7271 80.1445 93.4692 80.6625 93.4692 81.2236V98.0824C93.4692 98.9448 94.0683 99.6435 94.807 99.6435C95.5458 99.6435 96.1449 98.9448 96.1449 98.0824V83.5824C98.0579 84.2234 100.158 84.101 102.234 83.199C104.957 82.0163 107.32 79.6178 108.89 76.4459C112.178 69.8002 110.933 61.7527 106.114 58.5065C103.137 56.5001 99.3786 56.7536 96.1452 58.9995V53.9549C96.1452 51.3725 94.3447 49.2715 92.1315 49.2715H84.566C85.7418 45.6107 87.378 42.1026 89.4472 38.8576C92.0863 34.7188 93.4815 29.7969 93.4815 24.6246C93.4815 18.1391 91.2911 12.0713 87.3141 7.53876C83.3381 3.00808 78.0826 0.598339 72.5207 0.750704C67.2401 0.896825 62.2637 3.40898 58.5085 7.82445C54.7536 12.2399 52.6386 18.0657 52.553 24.2287C52.4773 29.677 53.9353 34.8343 56.7692 39.143C58.7967 42.2256 60.397 45.6379 61.5425 49.2715H55.5726C53.7121 49.2715 52.1077 50.7455 51.6711 52.8555L46.141 79.5806C45.8504 80.985 46.1231 82.4419 46.8889 83.5771C47.6547 84.7127 48.8042 85.3637 50.0426 85.3637H53.5291L52.4208 106.466C52.3534 107.75 52.7481 109.024 53.5034 109.961C54.2588 110.898 55.3246 111.436 56.427 111.436H67.4954V123.893C67.4954 126.476 69.2959 128.577 71.509 128.577H84.4223V131.327C84.4223 133.794 86.1426 135.802 88.257 135.802H96.4275C97.1663 135.802 97.7654 135.103 97.7654 134.24C97.7654 133.378 97.1663 132.679 96.4275 132.679H88.257C87.618 132.679 87.0981 132.073 87.0981 131.327V128.003H90.4691C91.5292 128.003 92.5645 127.502 93.307 126.631L96.858 122.487C97.1138 122.19 97.4515 122.027 97.809 122.027H108.036C108.576 122.027 109.103 121.902 109.611 121.652C110.091 121.412 110.518 121.075 110.874 120.655L112.135 119.183V131.327C112.135 132.073 111.616 132.679 110.977 132.679H103.946C103.207 132.679 102.608 133.378 102.608 134.24C102.608 135.103 103.207 135.802 103.946 135.802H110.976C113.09 135.802 114.81 133.794 114.81 131.327V109.769C114.81 107.302 113.09 105.294 110.976 105.294ZM81.8169 73.7068C81.8169 74.5676 81.2168 75.2679 80.479 75.2679H65.5522C64.8145 75.2679 64.2143 74.5676 64.2143 73.7068V63.5052C64.2143 62.6444 64.8145 61.9441 65.5522 61.9441H80.479C81.2168 61.9441 81.8169 62.6444 81.8169 63.5052V73.7068ZM55.2282 24.2793C55.3026 18.9262 57.142 13.8638 60.4077 10.0237C63.6735 6.1834 67.9979 3.99877 72.5839 3.87232C77.4204 3.72713 81.9885 5.83433 85.4445 9.77241C88.9016 13.712 90.8057 18.9868 90.8057 24.6243C90.8057 29.1203 89.5936 33.3978 87.3004 36.9936C83.1364 43.5241 80.5941 51.0546 79.9126 58.8215H66.1262C65.4647 50.8935 62.977 43.4535 58.8914 37.2419C56.4291 33.498 55.1624 29.0157 55.2282 24.2793ZM108.976 118.453C108.859 118.59 108.719 118.7 108.563 118.778C108.393 118.862 108.215 118.904 108.035 118.904H97.8079C96.7384 118.904 95.7305 119.391 94.9673 120.277L91.4115 124.426C91.1653 124.715 90.8212 124.88 90.4683 124.88H87.0973V109.769C87.0973 109.023 87.6172 108.417 88.2562 108.417H110.976C111.615 108.417 112.134 109.023 112.134 109.769V114.767L108.976 118.453Z" fill="#3F3F3F"/>
<path d="M98.5615 24.1313C98.5615 24.9936 99.1606 25.6923 99.8994 25.6923H102.641C103.38 25.6923 103.979 24.9936 103.979 24.1313C103.979 23.2689 103.38 22.5702 102.641 22.5702H99.8994C99.1606 22.5702 98.5615 23.2692 98.5615 24.1313Z" fill="#3F3F3F"/>
<path d="M98.3664 18.5731C98.6383 18.5731 98.9125 18.477 99.1494 18.2771L101.891 15.9635C102.49 15.4583 102.624 14.4823 102.191 13.7839C101.758 13.0851 100.922 12.9283 100.323 13.4335L97.5813 15.7471C96.9828 16.2523 96.8482 17.2284 97.2811 17.9268C97.5428 18.3489 97.9517 18.5731 98.3664 18.5731Z" fill="#3F3F3F"/>
<path d="M99.1492 29.9861C98.5506 29.4813 97.7141 29.6377 97.2812 30.3364C96.8482 31.0349 96.9826 32.0109 97.5814 32.516L100.323 34.8293C100.56 35.0294 100.834 35.1252 101.106 35.1252C101.521 35.1252 101.93 34.9011 102.192 34.479C102.624 33.7805 102.49 32.8045 101.891 32.2994L99.1492 29.9861Z" fill="#3F3F3F"/>
<path d="M46.5661 24.1313C46.5661 23.2689 45.967 22.5702 45.2282 22.5702H42.4863C41.7475 22.5702 41.1484 23.2689 41.1484 24.1313C41.1484 24.9936 41.7475 25.6923 42.4863 25.6923H45.2282C45.967 25.6923 46.5661 24.9936 46.5661 24.1313Z" fill="#3F3F3F"/>
<path d="M43.2347 15.9633L45.9766 18.2769C46.2134 18.477 46.4876 18.5729 46.7595 18.5729C47.1742 18.5729 47.5831 18.3487 47.8448 17.9266C48.2777 17.2281 48.1434 16.2521 47.5446 15.7469L44.8027 13.4333C44.2046 12.9284 43.3679 13.0848 42.9347 13.7836C42.5015 14.4821 42.6358 15.4581 43.2347 15.9633Z" fill="#3F3F3F"/>
<path d="M47.8445 30.3365C47.4116 29.6375 46.5749 29.4814 45.9766 29.9862L43.2347 32.2995C42.6359 32.8047 42.5016 33.7807 42.9345 34.4791C43.1962 34.9016 43.6051 35.1254 44.0198 35.1254C44.2917 35.1254 44.5657 35.0293 44.8027 34.8294L47.5446 32.5162C48.1429 32.0113 48.2775 31.0353 47.8445 30.3365Z" fill="#3F3F3F"/>
<path d="M77.9576 67.8365H68.4249C67.6839 67.8365 67.083 67.1529 67.083 66.3092C67.083 65.4655 67.6839 64.7819 68.4249 64.7819H77.9576C78.6987 64.7819 79.2996 65.4655 79.2996 66.3092C79.2996 67.1529 78.6987 67.8365 77.9576 67.8365Z" fill="#EE8633"/>
<path d="M77.9576 72.9276H68.4249C67.6839 72.9276 67.083 72.2439 67.083 71.4002C67.083 70.5566 67.6839 69.8729 68.4249 69.8729H77.9576C78.6987 69.8729 79.2996 70.5566 79.2996 71.4002C79.2996 72.2439 78.6987 72.9276 77.9576 72.9276Z" fill="#EE8633"/>
<defs>
<linearGradient id="paint0_linear" x1="58.2634" y1="18.8656" x2="102.5" y2="130.108" gradientUnits="userSpaceOnUse">
<stop offset="0.0112" stop-color="#FCEDC5"/>
<stop offset="1" stop-color="#F5B626"/>
</linearGradient>
</defs>
</svg>
