<svg width="770" height="214" viewBox="0 0 770 214" fill="none" xmlns="http://www.w3.org/2000/svg">
<path d="M98.87 7.61513e-06C111.847 -0.0197179 124.7 2.52008 136.695 7.47401C148.689 12.4279 159.588 19.6987 168.769 28.8702C177.95 38.0417 185.232 48.9338 190.198 60.9229C195.164 72.9121 197.717 85.763 197.71 98.74C197.71 155.05 151.71 197.82 98.64 197.74C45.57 197.66 5.19805e-07 154.83 5.19805e-07 98.72C-0.0013312 85.7429 2.5562 72.8929 7.52626 60.9053C12.4963 48.9176 19.7813 38.0276 28.9645 28.8584C38.1477 19.6892 49.0487 12.4207 61.0439 7.46884C73.039 2.51699 85.8929 -0.0210272 98.87 7.61513e-06V7.61513e-06ZM54.11 59.65H54.81C55.0831 60.1178 55.3269 60.6021 55.54 61.1C57.61 66.56 59.66 72.03 61.73 77.49C69.89 99.09 78.0567 120.687 86.23 142.28C86.69 143.48 86.7 145.34 88.51 145.41C90.63 145.5 90.51 143.41 91.04 142.13C94.66 132.35 98.21 122.54 101.79 112.74C108.157 95.2267 114.533 77.7133 120.92 60.2C121.19 59.47 121.18 58.48 122.58 58.57C122.58 59.67 122.58 60.78 122.58 61.89C123.093 85.41 123.6 108.93 124.1 132.45C124.1 134.12 124.25 135.79 124.15 137.45C124.158 138.789 123.688 140.086 122.825 141.109C121.961 142.132 120.761 142.813 119.44 143.03C118.54 143.25 117.61 143.36 116.27 143.6C116.85 144.41 117.1 145.05 117.57 145.34C118.09 145.535 118.65 145.597 119.2 145.52C130.333 145.52 141.47 145.52 152.61 145.52C153.157 145.531 153.701 145.433 154.21 145.23C154.378 145.12 154.519 144.973 154.619 144.799C154.72 144.625 154.779 144.43 154.79 144.23C154.767 144.04 154.7 143.857 154.594 143.698C154.488 143.538 154.346 143.405 154.18 143.31C153.646 143.178 153.1 143.098 152.55 143.07C149.07 142.41 147.48 140.67 147.2 137.17C147.12 136.17 147.2 135.22 147.2 134.25V62.45C147.2 61.61 147.2 60.78 147.2 59.94C147.43 55.94 148.92 54.33 152.97 53.65C153.38 53.58 153.97 53.65 154.17 53.41C154.497 52.871 154.756 52.2932 154.94 51.69C151.63 51.15 125.71 51.05 121.11 51.55C120.55 52.98 119.92 54.55 119.34 56.07L99.34 109.62C98.98 110.57 98.51 111.49 97.82 113.03C97.04 111.13 96.48 109.89 96 108.62C89.3333 90.9133 82.6667 73.2067 76 55.5C75.47 54.09 75.23 52.5 74 51.4C64.12 51.4 54.25 51.4 44.39 51.4C44.21 51.4 44.04 51.76 43.67 52.17C43.84 52.48 43.96 53.17 44.33 53.32C44.9796 53.519 45.6514 53.6365 46.33 53.67C49.22 54.22 50.78 55.76 51.25 58.57C51.3584 59.3987 51.4018 60.2346 51.38 61.07C51.38 85.43 51.38 109.79 51.38 134.15C51.38 138.66 50.15 141.79 45 143.01C44.86 143.01 44.67 143.01 44.6 143.12C44.28 143.5 43.73 143.94 43.76 144.31C43.79 144.68 44.39 145.37 44.76 145.37C49.91 145.44 55.06 145.43 60.21 145.37C60.47 145.37 60.86 145.28 60.96 145.1C61.1694 144.677 61.3369 144.235 61.46 143.78C61.05 143.46 60.87 143.22 60.63 143.14C54.63 140.96 53.84 139.92 53.83 133.78C53.83 109.98 53.83 86.1767 53.83 62.37C53.88 61.51 54 60.58 54.11 59.65Z" fill="black"/>
<path d="M383.14 158.28C383.14 159.22 383.07 159.85 383.03 160.66C381.9 160.77 380.95 160.93 380.03 160.95C359.63 161.35 336.69 161.15 332.64 160.5C332.64 159.94 332.55 159.32 332.52 158.82C332.9 158.51 333.08 158.23 333.31 158.19C334.54 157.98 335.81 157.94 337.01 157.63C338.518 157.298 339.875 156.477 340.868 155.294C341.861 154.111 342.435 152.633 342.5 151.09C342.56 150.26 342.5 149.42 342.5 148.59C342.41 142.46 342.33 136.34 342.2 130.22C341.64 103.5 341.067 76.78 340.48 50.06C340.589 48.4638 340.444 46.8606 340.05 45.31C338.8 46.18 338.67 47.3099 338.33 48.2599C332.703 63.6799 327.09 79.1033 321.49 94.5299C313.937 115.31 306.38 136.093 298.82 156.88C298.36 158.16 297.82 159.42 297.26 160.72C296.664 160.816 296.063 160.876 295.46 160.9C294.948 160.831 294.442 160.717 293.95 160.56C291.09 153.02 288.2 145.37 285.3 137.71C282.4 130.05 279.47 122.37 276.57 114.71C273.67 107.05 270.8 99.3499 267.9 91.7099C265 84.0699 262.08 76.3599 259.17 68.7099C256.438 61.0281 253.314 53.4915 249.81 46.13C249.81 47.2 249.71 48.27 249.71 49.33V146.22C249.71 146.91 249.71 147.61 249.71 148.31C249.93 153.16 252.08 155.96 256.76 157.5C257.68 157.8 258.61 158.07 259.46 158.33C259.605 158.614 259.709 158.917 259.77 159.23C259.754 159.659 259.707 160.087 259.63 160.51C259.281 160.712 258.903 160.861 258.51 160.95C251.293 161.224 244.068 161.134 236.86 160.68C236.56 160.365 236.382 159.953 236.359 159.519C236.335 159.085 236.466 158.656 236.73 158.31C237.73 158.04 238.79 157.78 239.84 157.43C244.09 156.01 246.17 153.26 246.4 148.78C246.46 147.53 246.4 146.28 246.4 145.02V50.56C246.4 49.31 246.45 48.05 246.4 46.81C246.354 45.1181 245.721 43.4949 244.61 42.218C243.499 40.9411 241.979 40.0899 240.31 39.81C239.12 39.57 237.88 39.54 236.53 39.4V37.36C236.82 37.15 237.03 36.87 237.24 36.86C250.31 36.43 263.38 36.76 276.18 36.65C277.66 37.81 277.86 39.24 278.34 40.52C287.447 64.7333 296.543 88.9466 305.63 113.16C306.22 114.71 306.84 116.25 307.49 117.9C309.05 117.02 309.11 115.5 309.57 114.28C316.903 94.7533 324.207 75.2133 331.48 55.66C333.42 50.44 335.367 45.2266 337.32 40.02C337.71 39.02 338.18 38.02 338.58 37.08C342.23 36.5 367.13 36.2599 380.45 36.6699C381.26 36.6699 382.06 36.8799 383 37.0099C383.06 37.7999 383.1 38.4599 383.14 39.0099C382.76 39.2499 382.54 39.4799 382.3 39.5099C381.2 39.6599 380.07 39.63 378.99 39.87C377.404 40.1682 375.963 40.9909 374.901 42.2059C373.838 43.421 373.214 44.9579 373.13 46.57C373.04 47.68 373.08 48.8 373.08 49.91V147.63C373.08 148.75 373.08 149.86 373.13 150.97C373.168 152.588 373.766 154.143 374.822 155.37C375.877 156.597 377.326 157.421 378.92 157.7C380.13 158 381.39 158.05 383.14 158.28Z" fill="black"/>
<path d="M609.6 152.3V160.17C608.922 160.384 608.226 160.531 607.52 160.61C595.14 160.61 582.76 160.61 570.38 160.61C569.984 160.582 569.593 160.515 569.21 160.41C568.38 159.55 568.39 158.68 569.07 157.51C570.13 157.45 571.36 157.41 572.57 157.31C574.331 157.257 576.007 156.541 577.263 155.307C578.52 154.073 579.265 152.41 579.35 150.65C579.395 149.817 579.395 148.983 579.35 148.15C579.35 113.23 579.35 78.3167 579.35 43.4101C579.345 41.6074 579.126 39.8116 578.7 38.0601C578.122 35.8912 576.889 33.9533 575.17 32.5101C573.4 30.9401 571.3 31.2201 568.93 31.4101C568.83 30.5001 568.74 29.6301 568.62 28.5001C581.48 25.9101 594.2 23.7101 606.87 21.2901C607.715 21.2142 608.565 21.2142 609.41 21.2901C609.95 25.4301 609.61 29.4501 609.67 33.4601C609.73 37.4701 609.67 41.2501 609.67 45.1401V80.9401C610.67 81.4401 611.05 80.7301 611.47 80.2401C616.3 74.5501 622.47 72.2401 629.88 72.0401C640.75 71.7501 650.12 75.0401 657.88 82.6601C661.875 86.5678 664.991 91.2826 667.02 96.4901C669.883 103.388 671.298 110.8 671.177 118.268C671.057 125.735 669.404 133.098 666.32 139.9C663.102 147.534 657.443 153.885 650.23 157.96C642.8 162.19 634.77 163.24 626.43 162.23C623.235 161.821 620.211 160.553 617.68 158.56C615.25 156.61 612.73 154.69 609.6 152.3ZM609.71 115.43C609.71 123.35 609.71 131.27 609.71 139.19C609.71 140.57 609.55 141.95 610.38 143.19C612.59 146.894 615.348 150.242 618.56 153.12C619.832 154.194 621.245 155.089 622.76 155.78C628.14 158.15 632.76 156.09 634.76 150.57C635.145 149.383 635.459 148.174 635.7 146.95C636.624 142.183 637.06 137.335 637 132.48C637.12 122.34 637.12 112.197 637 102.05C637.095 96.9057 636.635 91.7661 635.63 86.7201C635.191 84.6915 634.499 82.7261 633.57 80.8701C631.92 77.7201 629.1 76.4501 625.57 76.7701C622.619 77.0108 619.82 78.1761 617.57 80.1001C615.57 81.8101 613.79 83.7601 611.97 85.6601C611.158 86.5116 610.533 87.5235 610.135 88.6309C609.737 89.7382 609.576 90.9165 609.66 92.0901C609.81 99.8701 609.71 107.65 609.71 115.43Z" fill="black"/>
<path d="M442.4 152.94C441.31 153.83 440.55 154.43 439.81 155.05C431.87 161.71 422.66 163.89 412.52 162.8C408.494 162.441 404.563 161.371 400.91 159.64C391.98 155.25 387.38 147.92 386.69 138.13C385.87 126.72 391.52 114.24 407.58 109.03C411.305 107.869 415.189 107.298 419.09 107.34H436.63C438 107.34 439.37 107.25 441 107.19C441.164 106.365 441.274 105.53 441.33 104.69C441.33 99.96 441.4 95.23 441.33 90.5C441.368 87.5695 440.919 84.6531 440 81.87C439.548 80.3967 438.68 79.0854 437.5 78.0937C436.32 77.1021 434.879 76.4723 433.35 76.28C428.76 75.52 424.2 75.99 419.64 76.59C418.814 76.7348 418.017 77.0117 417.28 77.41C415.28 78.41 414.17 80.02 416.67 81.77C419.92 84.07 420.61 87.27 420.18 90.98C420.049 92.6627 419.425 94.2694 418.387 95.5997C417.348 96.93 415.941 97.9248 414.34 98.46C412.46 99.2208 410.426 99.5216 408.407 99.3372C406.387 99.1528 404.441 98.4887 402.73 97.4C400.923 96.308 399.608 94.5594 399.06 92.52C398.176 89.8529 398.21 86.9669 399.156 84.3211C400.102 81.6754 401.906 79.4222 404.28 77.92C408.433 75.2977 413.122 73.6403 418 73.07C428.641 71.5662 439.459 71.8671 450 73.96C452.182 74.3987 454.318 75.0415 456.38 75.88C464.75 79.12 469.66 85.26 471.07 94.1C471.55 97.1201 471.8 100.172 471.82 103.23C471.9 117 471.82 130.78 471.89 144.56C471.88 146.78 472.098 148.995 472.54 151.17C473.17 154.17 474.61 155.23 477.38 155.49C478.623 155.68 479.894 155.442 480.984 154.815C482.074 154.188 482.919 153.21 483.38 152.04C483.89 150.9 484.16 149.67 484.56 148.48C484.701 147.947 484.927 147.44 485.23 146.98C485.35 146.831 485.502 146.711 485.676 146.63C485.849 146.548 486.039 146.507 486.23 146.51C486.698 146.739 487.101 147.083 487.4 147.51C487.525 147.76 487.567 148.044 487.52 148.32C487.34 152.9 485.74 156.7 481.68 159.22C479.333 160.722 476.73 161.779 474 162.34C468.098 163.461 462.033 163.41 456.15 162.19C451.151 161.326 446.677 158.568 443.66 154.49C443.34 154 443 153.63 442.4 152.94ZM441.18 111.29C437.753 110.995 434.307 110.995 430.88 111.29C428.992 111.416 427.169 112.023 425.582 113.054C423.996 114.086 422.701 115.506 421.82 117.18C420.731 119.118 419.888 121.184 419.31 123.33C417.12 131.69 417.31 140.14 418.86 148.58C419.172 150.219 419.731 151.8 420.52 153.27C421.268 154.785 422.55 155.97 424.12 156.596C425.689 157.222 427.435 157.245 429.02 156.66C432.073 155.679 434.93 154.17 437.46 152.2C438.779 151.291 439.84 150.056 440.541 148.616C441.242 147.176 441.558 145.579 441.46 143.98C441.28 134.37 441.4 124.77 441.39 115.17C441.35 114.05 441.25 112.94 441.18 111.29V111.29Z" fill="black"/>
<path d="M770 110.61H711.43C711.165 111.426 710.985 112.267 710.89 113.12C710.89 122.3 710.79 131.48 710.97 140.66C711.035 143.717 711.465 146.755 712.25 149.71C713.86 155.89 716.96 158.28 723.25 158.41C739.19 158.75 751.46 152.21 759.86 138.59C760.59 137.41 761.19 136.15 761.86 134.95C762.27 134.243 762.742 133.574 763.27 132.95C763.513 132.603 763.88 132.363 764.295 132.279C764.71 132.196 765.142 132.275 765.5 132.5C765.762 132.701 765.976 132.958 766.126 133.252C766.277 133.546 766.36 133.87 766.37 134.2C766.164 135.577 765.781 136.922 765.23 138.2C761.351 147.097 754.341 154.26 745.53 158.33C737.06 162.348 727.635 163.917 718.32 162.86C709.974 162.125 702.003 159.054 695.32 154C686.57 147.43 681.45 138.56 679.21 128C677.074 118.419 677.894 108.416 681.56 99.31C687.43 84.75 698.37 76.09 713.63 73C721.983 71.265 730.627 71.5254 738.86 73.76C752.34 77.44 761.81 85.76 766.94 98.88C768.517 102.623 769.547 106.574 770 110.61V110.61ZM736 106.18C736.16 105.798 736.274 105.399 736.34 104.99C736.34 99.99 736.5 94.99 736.28 89.99C736.113 87.5036 735.622 85.0496 734.82 82.69C734.402 81.3523 733.697 80.1221 732.754 79.0857C731.811 78.0492 730.652 77.2316 729.36 76.69C721.36 73.13 713.25 77.29 711.52 85.84C711.343 86.4948 711.226 87.1642 711.17 87.84C711.11 93.84 711.09 99.75 711.07 105.7C711.07 105.81 711.22 105.92 711.38 106.14C711.685 106.332 712.025 106.465 712.38 106.53C719.873 106.53 727.363 106.53 734.85 106.53C735.251 106.482 735.64 106.364 736 106.18V106.18Z" fill="black"/>
<path d="M501.73 208.84C505.46 208.84 507.81 208.04 510.16 205.65C511.247 204.574 512.179 203.352 512.93 202.02C514.713 199.039 516.261 195.922 517.56 192.7C520.19 185.38 522.44 177.92 524.91 170.54C525.233 169.554 525.347 168.511 525.245 167.478C525.144 166.445 524.829 165.445 524.32 164.54C511.16 137.207 498.033 109.873 484.94 82.5401C484.64 81.9101 484.35 81.2801 484.01 80.6801C483.444 79.5582 482.573 78.6182 481.498 77.9675C480.423 77.3168 479.187 76.9815 477.93 77.0001C476 77.0001 474.08 76.9201 471.93 76.8701C471.82 75.8701 471.73 75.0701 471.65 74.3801C472.03 74.1201 472.24 73.8601 472.48 73.8401C473.59 73.7501 474.7 73.7001 475.81 73.7001H519.22C520.59 73.7001 521.96 73.8001 523.43 73.8501V76.5701C522.486 76.8798 521.562 77.2438 520.66 77.6601C519.139 78.3954 517.945 79.6681 517.308 81.2324C516.671 82.7967 516.636 84.5415 517.21 86.1301C517.447 86.7831 517.725 87.421 518.04 88.0401C524.42 101.48 530.803 114.92 537.19 128.36C537.58 129.17 537.7 130.36 539.13 130.53C539.45 129.86 539.83 129.16 540.13 128.42C545.537 114.26 550.933 100.097 556.32 85.9301C556.694 85.0361 556.982 84.1086 557.18 83.1601C557.336 82.5869 557.378 81.9885 557.302 81.3992C557.227 80.8099 557.036 80.2413 556.741 79.7259C556.445 79.2104 556.051 78.7582 555.581 78.3952C555.111 78.0321 554.573 77.7653 554 77.6101C552.929 77.3147 551.835 77.1107 550.73 77.0001C549.15 76.7301 549.15 76.7301 549.09 74.1901C549.548 73.9757 550.032 73.8211 550.53 73.7301C556.84 73.3501 569.8 73.6201 572.65 74.1601V76.6001C572.096 76.7918 571.528 76.9389 570.95 77.0401C565.68 77.5301 562.32 80.3101 560.51 85.2901C557.94 92.2901 555.19 99.2901 552.51 106.29C546.3 122.52 539.94 138.7 533.95 155.01C530.74 163.74 528.22 172.73 525.28 181.56C523.48 186.97 521.62 192.36 519.53 197.66C518.46 200.229 517.119 202.676 515.53 204.96C514.19 207.003 512.435 208.741 510.38 210.063C508.325 211.384 506.015 212.259 503.6 212.63C500.586 213.174 497.521 213.385 494.46 213.26C490.968 213.06 487.606 211.867 484.77 209.82C478.95 205.88 477.85 194.82 485.01 190.04C486.962 188.68 489.227 187.838 491.593 187.591C493.959 187.345 496.35 187.702 498.54 188.63C500.612 189.506 502.344 191.029 503.48 192.97C504.788 195.115 505.439 197.596 505.354 200.107C505.269 202.618 504.45 205.049 503 207.1C502.6 207.68 502.21 208.2 501.73 208.84Z" fill="black"/>
</svg>
